As a general rule, don't hack the hotel PBX unless your giving them a better credit rating.
Casino offices can be full of fun!!
Casinos generally don't appreciate it when you explore their offices....
Don't commit a felony in front of Gail Thackery.
Don't forget to Hack the BED!
Give a Casino security guard a walki-talki and he'll swear he's the center of the universe.
If you harass a hotel telephone operator long enough she WILL send security.
If your wondering where all those C-64 warez kidz went, try talking to some of the beggars in Vegas.
Metal plates screwed to your hotel room ceiling generally constitute a bad sign.
One can survive for 3 days in Vegas on $12 and a gift certificate.
Pirates and Theives ONLY!
Setting 11 fires in selected parts of the city is probably a bad idea.
The guy who looks least like a fed probably does security for SUN.
The guy who looks most like a fed probably writes for LOOMPANICS.
The people who work at the Death Star throw the darndest things in the trash!
Those COCOTS were gold plated for a REASON!
Viruses are our friends.
When using ITT ask for BOB...
Yes, some people ARE capable of gambling away $167 in an hour!
You can get resonable conference discounts on prostitution in Nevada.
You know your in deep shit when THEY aim an IR-Mic at your window.
As a general rule, don't hack the hotel PBX unless your giving them a better credit rating.
Casino offices can be full of fun!!
Casinos generally don't appreciate it when you explore their offices....
Don't commit a felony in front of Gail Thackery.
Don't forget to Hack the BED!
Give a Casino security guard a walki-talki and he'll swear he's the center of the universe.
If you harass a hotel telephone operator long enough she WILL send security.
If your wondering where all those C-64 warez kidz went, try talking to some of the beggars in Vegas.
Metal plates screwed to your hotel room ceiling generally constitute a bad sign.
One can survive for 3 days in Vegas on $12 and a gift certificate.
Pirates and Theives ONLY!
Setting 11 fires in selected parts of the city is probably a bad idea.
The guy who looks least like a fed probably does security for SUN.
The guy who looks most like a fed probably writes for LOOMPANICS.
The people who work at the Death Star throw the darndest things in the trash!
Those COCOTS were gold plated for a REASON!
Viruses are our friends.
When using ITT ask for BOB...
Yes, some people ARE capable of gambling away $167 in an hour!
You can get resonable conference discounts on prostitution in Nevada.
You know your in deep shit when THEY aim an IR-Mic at your window.
